-- MySQL dump 10.13  Distrib 5.6.26, for Win64 (x86_64)
--
-- Host: localhost    Database: proyectofinal
-- ------------------------------------------------------
-- Server version	5.6.26-log

/*!40101 SET @OLD_CHARACTER_SET_CLIENT=@@CHARACTER_SET_CLIENT */;
/*!40101 SET @OLD_CHARACTER_SET_RESULTS=@@CHARACTER_SET_RESULTS */;
/*!40101 SET @OLD_COLLATION_CONNECTION=@@COLLATION_CONNECTION */;
/*!40101 SET NAMES utf8 */;
/*!40103 SET @OLD_TIME_ZONE=@@TIME_ZONE */;
/*!40103 SET TIME_ZONE='+00:00' */;
/*!40014 SET @OLD_UNIQUE_CHECKS=@@UNIQUE_CHECKS, UNIQUE_CHECKS=0 */;
/*!40014 SET @OLD_FOREIGN_KEY_CHECKS=@@FOREIGN_KEY_CHECKS, FOREIGN_KEY_CHECKS=0 */;
/*!40101 SET @OLD_SQL_MODE=@@SQL_MODE, SQL_MODE='NO_AUTO_VALUE_ON_ZERO' */;
/*!40111 SET @OLD_SQL_NOTES=@@SQL_NOTES, SQL_NOTES=0 */;

--
-- Table structure for table `cliente`
--

DROP TABLE IF EXISTS `cliente`;
/*!40101 SET @saved_cs_client     = @@character_set_client */;
/*!40101 SET character_set_client = utf8 */;
CREATE TABLE `cliente` (
  `id` int(11) NOT NULL AUTO_INCREMENT,
  `usuario` varchar(30) NOT NULL,
  `pass` varchar(50) NOT NULL,
  `saldo` float NOT NULL,
  `tipo` varchar(20) NOT NULL,
  PRIMARY KEY (`id`)
) ENGINE=InnoDB AUTO_INCREMENT=10 DEFAULT CHARSET=utf8;
/*!40101 SET character_set_client = @saved_cs_client */;

--
-- Dumping data for table `cliente`
--

LOCK TABLES `cliente` WRITE;
/*!40000 ALTER TABLE `cliente` DISABLE KEYS */;
INSERT INTO `cliente` VALUES (1,'JuperSose','c893bad68927b457dbed39460e6afd62',12,'admin'),(2,'Perro','abb2bbcddbfc9058817ab6dcfa978b5a',100,'admin'),(3,'Lolo','bb09219d29b58a77799797b9ecf46a29',500,'admin'),(4,'pipo','912ec803b2ce49e4a541068d495ab570',84.03,'pobre'),(5,'amlo','202cb962ac59075b964b07152d234b70',0,'pobre'),(6,'amlo','202cb962ac59075b964b07152d234b70',0,'pobre'),(7,'amlo','202cb962ac59075b964b07152d234b70',0,'pobre'),(8,'amlo','202cb962ac59075b964b07152d234b70',0,'pobre'),(9,'amlo','202cb962ac59075b964b07152d234b70',-150,'VIP');
/*!40000 ALTER TABLE `cliente` ENABLE KEYS */;
UNLOCK TABLES;

--
-- Table structure for table `peliculas`
--

DROP TABLE IF EXISTS `peliculas`;
/*!40101 SET @saved_cs_client     = @@character_set_client */;
/*!40101 SET character_set_client = utf8 */;
CREATE TABLE `peliculas` (
  `id` int(11) NOT NULL AUTO_INCREMENT,
  `nombre` varchar(60) NOT NULL,
  `precio` float NOT NULL,
  `categoria` varchar(30) DEFAULT NULL,
  PRIMARY KEY (`id`)
) ENGINE=InnoDB AUTO_INCREMENT=6 DEFAULT CHARSET=utf8;
/*!40101 SET character_set_client = @saved_cs_client */;

--
-- Dumping data for table `peliculas`
--

LOCK TABLES `peliculas` WRITE;
/*!40000 ALTER TABLE `peliculas` DISABLE KEYS */;
INSERT INTO `peliculas` VALUES (1,'Spoderman',15.99,'B15'),(2,'Herri Peter',19.99,'B15'),(3,'Losrd of the Dings',15.99,'B'),(4,'MemeLand',15.99,'C'),(5,'Emojis con popeye dolares',99.99,'A');
/*!40000 ALTER TABLE `peliculas` ENABLE KEYS */;
UNLOCK TABLES;

--
-- Table structure for table `rentas`
--

DROP TABLE IF EXISTS `rentas`;
/*!40101 SET @saved_cs_client     = @@character_set_client */;
/*!40101 SET character_set_client = utf8 */;
CREATE TABLE `rentas` (
  `id` int(11) NOT NULL AUTO_INCREMENT,
  `idUsuario` varchar(30) NOT NULL,
  `idPelicula` varchar(60) NOT NULL,
  `fechaInicio` varchar(100) NOT NULL,
  `fechaFin` varchar(100) NOT NULL,
  PRIMARY KEY (`id`)
) ENGINE=InnoDB AUTO_INCREMENT=6 DEFAULT CHARSET=utf8;
/*!40101 SET character_set_client = @saved_cs_client */;

--
-- Dumping data for table `rentas`
--

LOCK TABLES `rentas` WRITE;
/*!40000 ALTER TABLE `rentas` DISABLE KEYS */;
INSERT INTO `rentas` VALUES (1,'4','Losrd of the Dings','Tue Nov 27 20:23:35 MST 2018','Tue Nov 27 20:23:35 MST 2018'),(2,'4','Emojis con popeye dolares','Tue Nov 27 20:25:07 MST 2018','Tue Nov 27 20:25:07 MST 2018'),(3,'4','MemeLand','Tue Nov 27 20:25:31 MST 2018','Tue Nov 27 20:25:31 MST 2018'),(4,'4','Herri Peter','Tue Nov 27 20:26:33 MST 2018','Tue Nov 27 20:26:33 MST 2018'),(5,'4','Spoderman','Tue Nov 27 20:29:45 MST 2018','Tue Nov 27 20:29:45 MST 2018');
/*!40000 ALTER TABLE `rentas` ENABLE KEYS */;
UNLOCK TABLES;
/*!40103 SET TIME_ZONE=@OLD_TIME_ZONE */;

/*!40101 SET SQL_MODE=@OLD_SQL_MODE */;
/*!40014 SET FOREIGN_KEY_CHECKS=@OLD_FOREIGN_KEY_CHECKS */;
/*!40014 SET UNIQUE_CHECKS=@OLD_UNIQUE_CHECKS */;
/*!40101 SET CHARACTER_SET_CLIENT=@OLD_CHARACTER_SET_CLIENT */;
/*!40101 SET CHARACTER_SET_RESULTS=@OLD_CHARACTER_SET_RESULTS */;
/*!40101 SET COLLATION_CONNECTION=@OLD_COLLATION_CONNECTION */;
/*!40111 SET SQL_NOTES=@OLD_SQL_NOTES */;

-- Dump completed on 2018-11-27 20:52:34
